IS415-GAA - In-class Exercise 6:
…
    Published

      March 4, 2024

Load Packages

# GDAL is not in CRAN anymore. We are now using the `sp` package.
pacman::p_load(spdep, sp, tmap, sf, ClustGeo, ggpubr, cluster, factoextra, NbClust, heatmaply, corrplot, psych, tidyverse, GGally)

The Data

shan_ict <- read_csv('data/aspatial/Shan-ICT.csv')
shan_ict

# A tibble: 55 × 11
   `District Pcode` `District Name` `Township Pcode` `Township Name`
   <chr>            <chr>           <chr>            <chr>          
 1 MMR014D001       Taunggyi        MMR014001        Taunggyi       
 2 MMR014D001       Taunggyi        MMR014002        Nyaungshwe     
 3 MMR014D001       Taunggyi        MMR014003        Hopong         
 4 MMR014D001       Taunggyi        MMR014004        Hsihseng       
 5 MMR014D001       Taunggyi        MMR014005        Kalaw          
 6 MMR014D001       Taunggyi        MMR014006        Pindaya        
 7 MMR014D001       Taunggyi        MMR014007        Ywangan        
 8 MMR014D001       Taunggyi        MMR014008        Lawksawk       
 9 MMR014D001       Taunggyi        MMR014009        Pinlaung       
10 MMR014D001       Taunggyi        MMR014010        Pekon          
# ℹ 45 more rows
# ℹ 7 more variables: `Total households` <dbl>, Radio <dbl>, Television <dbl>,
#   `Land line phone` <dbl>, `Mobile phone` <dbl>, Computer <dbl>,
#   `Internet at home` <dbl>
…
